{
	"AssetInfoVersion": 2,
	"ShaderCodeToAssets": [
		{
			"ShaderMapHash": "59AD470090D49B35F34484FCE2F703027F6CFF51",
			"Assets": [
				"/Interchange/gltf/MaterialInstances/MI_ClearCoat_Blend_DS"
			]
		},
		{
			"ShaderMapHash": "CFDCF902CB1EAFB4C8F49CB52E1C1F161E001776",
			"Assets": [
				"/Game/StarterContent/Materials/M_Tech_Hex_Tile"
			]
		},
		{
			"ShaderMapHash": "7142840353F82C40131EA6F4108FD2A072D4D6C0",
			"Assets": [
				"/Game/StarterContent/Particles/Materials/M_explosion_subUV"
			]
		},
		{
			"ShaderMapHash": "D2BC7304E19C92A116A21E6CBBD2D54C88B35EFF",
			"Assets": [
				"/Interchange/gltf/MaterialInstances/MI_Sheen_Mask"
			]
		},
		{
			"ShaderMapHash": "22B0DD050B9BD648B5F0D46E2B1EE493A98EE50B",
			"Assets": [
				"/Engine/EngineMaterials/Widget3DPassThrough_Masked"
			]
		},
		{
			"ShaderMapHash": "9E5FD4068601D6BF67C8D455C6D11366F114CD2E",
			"Assets": [
				"/Game/StarterContent/Materials/M_Brick_Cut_Stone"
			]
		},
		{
			"ShaderMapHash": "B2590709EA228CB0A494CD90487D5B1CF7259C84",
			"Assets": [
				"/Game/StarterContent/Props/Materials/M_Statue"
			]
		},
		{
			"ShaderMapHash": "4C7C790F6C7946037EE51A5A0BF1F7F4B7AE51A8",
			"Assets": [
				"/Engine/EditorMaterials/Thumbnails/SkySphereMaterial"
			]
		},
		{
			"ShaderMapHash": "740906101A6FADF71754BCAF0E0A831106816B97",
			"Assets": [
				"/Interchange/gltf/MaterialInstances/MI_Unlit_Blend"
			]
		},
		{
			"ShaderMapHash": "0CBA1E11538F0617658F2D3F395F9E3BEF557F71",
			"Assets": [
				"/Engine/EngineMaterials/RemoveSurfaceMaterial",
				"/Game/StarterContent/Blueprints/Assets/M_LightStage_Skybox_Master"
			]
		},
		{
			"ShaderMapHash": "F41020167194BC7D7FF4809CE6A45F62FFA78E08",
			"Assets": [
				"/Engine/VREditor/TransformGizmo/Main"
			]
		},
		{
			"ShaderMapHash": "B99324194051F2FBF358EAFD4063CFF8E6478CFC",
			"Assets": [
				"/Game/StarterContent/Materials/M_Wood_Oak"
			]
		},
		{
			"ShaderMapHash": "7C0C821A40528D2FD1A69A57E84885A86D56B072",
			"Assets": [
				"/Interchange/gltf/MaterialInstances/MI_ClearCoat_Mask_DS"
			]
		},
		{
			"ShaderMapHash": "4E4BAC1B474B717D58FF22554FDE04978B5B60EC",
			"Assets": [
				"/Paper2D/OpaqueUnlitSpriteMaterial"
			]
		},
		{
			"ShaderMapHash": "AC8E891C45993703B6B71C3BB5A9B031623124C7",
			"Assets": [
				"/Interchange/gltf/M_Sheen"
			]
		},
		{
			"ShaderMapHash": "BDBDE11CAEF640CD3C558C226B765668232F1F5E",
			"Assets": [
				"/Interchange/gltf/M_SpecularGlossiness"
			]
		},
		{
			"ShaderMapHash": "E05D341DA8C9AD4380D247586380136B558BB7F3",
			"Assets": [
				"/Game/StarterContent/Props/Materials/M_StatueGlass"
			]
		},
		{
			"ShaderMapHash": "E0B9CB1D4D960E6CE74E25EF6CD6DCC8A2D4808F",
			"Assets": [
				"/Game/StarterContent/Materials/M_CobbleStone_Pebble"
			]
		},
		{
			"ShaderMapHash": "FAC2CC1D5893280137F253A5F6CDA83A64F037BA",
			"Assets": [
				"/Interchange/gltf/MaterialInstances/MI_SpecularGlossiness_Opaque_DS"
			]
		},
		{
			"ShaderMapHash": "8A0AE51D075F1E50F64C9FEB0EC44D3B13710D84",
			"Assets": [
				"/Game/StarterContent/Materials/M_Wood_Pine"
			]
		},
		{
			"ShaderMapHash": "2B78221E515B492113E079E8DAD66198DB7FA56D",
			"Assets": [
				"/Game/StarterContent/Materials/M_Metal_Brushed_Nickel"
			]
		},
		{
			"ShaderMapHash": "DEF56220C7BD375B4FDAB75A7F6EDB6140CF8EB9",
			"Assets": [
				"/Interchange/gltf/MaterialInstances/MI_Sheen_Mask_DS"
			]
		},
		{
			"ShaderMapHash": "8EF7432262121E8454796FC2E7A27749851C2451",
			"Assets": [
				"/SpeedTreeImporter/SpeedTree9/SpeedTreeMaster"
			]
		},
		{
			"ShaderMapHash": "B7F17423B903CB354970F4AAF30E897BCC0FBBF7",
			"Assets": [
				"/Game/StarterContent/Materials/M_CobbleStone_Smooth"
			]
		},
		{
			"ShaderMapHash": "4D875A2759C02D2CAE7FDD88B7D00A7353B4C89C",
			"Assets": [
				"/Interchange/gltf/M_Default"
			]
		},
		{
			"ShaderMapHash": "8F0DCB2A7CE346FC0CF04FA7AA3AAB468AEA5FA1",
			"Assets": [
				"/Engine/EngineMaterials/Widget3DPassThrough_Opaque_OneSided"
			]
		},
		{
			"ShaderMapHash": "BE81EF2A22D95B4BB48FF88C308CF19097BB5E6A",
			"Assets": [
				"/Engine/EditorMeshes/ColorCalibrator/M_ColorGrid"
			]
		},
		{
			"ShaderMapHash": "02952A2B245F77FEE86A5472B1E5BDCBEC365479",
			"Assets": [
				"/Engine/EditorMaterials/Camera/CineMat"
			]
		},
		{
			"ShaderMapHash": "92A9202CC49ABF1081EA95A388FF428ABD74E250",
			"Assets": [
				"/Game/StarterContent/Materials/M_Brick_Clay_New"
			]
		},
		{
			"ShaderMapHash": "5966682D34B010172E0D5EB473F0F88CA27FA829",
			"Assets": [
				"/Game/StarterContent/Props/Materials/M_Bush"
			]
		},
		{
			"ShaderMapHash": "6D65B030484FE287CB08269D34C59297E82A925B",
			"Assets": [
				"/Game/StarterContent/Materials/M_Ground_Grass"
			]
		},
		{
			"ShaderMapHash": "256C8E32413DB1156FA98705DFCFD19CB50F8B4F",
			"Assets": [
				"/Game/StarterContent/Materials/M_Glass"
			]
		},
		{
			"ShaderMapHash": "FCE85F33CB5D23A0044C7F44EDA03BBC8E1CA022",
			"Assets": [
				"/Engine/VREditor/TransformGizmo/Xray"
			]
		},
		{
			"ShaderMapHash": "596A1934E2A3AE76821E85F6EAD59C39105813C1",
			"Assets": [
				"/Game/StarterContent/Materials/M_Water_Lake"
			]
		},
		{
			"ShaderMapHash": "F57BCA36A12953F1D4FED02EE570DBC9FB63AA0A",
			"Assets": [
				"/Game/StarterContent/Materials/M_CobbleStone_Rough"
			]
		},
		{
			"ShaderMapHash": "295E27370D68D6F64A9BFEC63B855D2678657E1D",
			"Assets": [
				"/Interchange/gltf/MaterialInstances/MI_Default_Mask"
			]
		},
		{
			"ShaderMapHash": "A2DCA1389DDE57B29CC8C02C3E92F265C9292ED0",
			"Assets": [
				"/Game/StarterContent/Materials/M_Metal_Burnished_Steel"
			]
		},
		{
			"ShaderMapHash": "59BB4C3D7B10FEC123D53D902879A89DC57A7B3D",
			"Assets": [
				"/Game/Characters/Mannequins/Materials/Instances/Manny/MI_Manny_02",
				"/Game/Characters/Mannequins/Materials/Instances/Quinn/MI_Quinn_02"
			]
		},
		{
			"ShaderMapHash": "C86F7C44B386018412F7827E213D76EB64473453",
			"Assets": [
				"/Game/Characters/Mannequins/Materials/Instances/Manny/MI_Manny_01",
				"/Game/Characters/Mannequins/Materials/M_Mannequin"
			]
		},
		{
			"ShaderMapHash": "EFD6D64425C2D4962AEC3B0F8AD6B12BBB12AA68",
			"Assets": [
				"/Game/StarterContent/Materials/M_Tech_Panel"
			]
		},
		{
			"ShaderMapHash": "08147647FD92AB4A5378B343BE3829AAD4F2A7A9",
			"Assets": [
				"/Engine/EngineMaterials/Widget3DPassThrough_Masked_OneSided"
			]
		},
		{
			"ShaderMapHash": "54459E47C7A916E5712E6D5215E7275DBA6C2DF6",
			"Assets": [
				"/Engine/EngineMaterials/PPM_DefaultCalibrationGrayscale"
			]
		},
		{
			"ShaderMapHash": "9C8EC447B8F0ABFC783A30C5E81742A6F21D9A66",
			"Assets": [
				"/Interchange/gltf/MaterialInstances/MI_ClearCoat_Opaque_DS"
			]
		},
		{
			"ShaderMapHash": "4CBC8B4912FBC44C1C19DE6F4978A38EB68F4525",
			"Assets": [
				"/Game/StarterContent/Particles/Materials/M_Heat_Distortion"
			]
		},
		{
			"ShaderMapHash": "723D524ADE4C9A9B4B4E99371FC40C8D010293B5",
			"Assets": [
				"/Interchange/gltf/MaterialInstances/MI_Unlit_Blend_DS"
			]
		},
		{
			"ShaderMapHash": "32230F4C80F28A5C9E5F2D8F0C435EB6D62861DB",
			"Assets": [
				"/Game/StarterContent/Particles/Materials/M_Radial_Gradient",
				"/Game/StarterContent/Particles/Materials/M_radial_ramp"
			]
		},
		{
			"ShaderMapHash": "B2352451A8B93866FB529322E0377F81FFD9A501",
			"Assets": [
				"/Engine/EngineMaterials/Widget3DPassThrough_Opaque"
			]
		},
		{
			"ShaderMapHash": "4EEEFE57B37BA4F0A593FF8F7898ACB5AE883720",
			"Assets": [
				"/SpeedTreeImporter/SpeedTree9/SpeedTreeBillboardMaster"
			]
		},
		{
			"ShaderMapHash": "DB626958631E950FB38D981C39A87E0D50CDBB22",
			"Assets": [
				"/Engine/VREditor/TransformGizmo/TransformGizmoMaterial"
			]
		},
		{
			"ShaderMapHash": "C1EE5E5B5BF67801CFCF926385ECA562DDB0D7FC",
			"Assets": [
				"/Engine/EngineMaterials/WorldGridMaterial"
			]
		},
		{
			"ShaderMapHash": "68643F5D6D6E2AE1D434689B768EDAAAF5DA71F0",
			"Assets": [
				"/Game/StarterContent/Materials/M_Rock_Basalt"
			]
		},
		{
			"ShaderMapHash": "5B3E895F182400C76628BFB02C933FD7D47A309D",
			"Assets": [
				"/Interchange/gltf/MaterialInstances/MI_Sheen_Blend_DS"
			]
		},
		{
			"ShaderMapHash": "53763660661F9E9A32FC9453052912986B3A94BD",
			"Assets": [
				"/Interchange/gltf/MaterialInstances/MI_Unlit_Opaque_DS"
			]
		},
		{
			"ShaderMapHash": "5C41DA6057AA20A0D3052BE517447B9530D5B9E4",
			"Assets": [
				"/Game/StarterContent/Particles/Materials/M_smoke_subUV"
			]
		},
		{
			"ShaderMapHash": "B44057621154A2369DAE0CACC6FE785878C7BA2E",
			"Assets": [
				"/Game/StarterContent/Blueprints/Assets/M_LightStage_Arrows"
			]
		},
		{
			"ShaderMapHash": "6C1FA064A832DA956F0B6205D0C7557E55CEC8A8",
			"Assets": [
				"/Game/StarterContent/Particles/Materials/m_flare_01"
			]
		},
		{
			"ShaderMapHash": "4029DF644295405675A86DB46AC56B95C1EC3635",
			"Assets": [
				"/Game/StarterContent/Materials/M_Basic_Wall"
			]
		},
		{
			"ShaderMapHash": "0F58E36514DCFCE66564E759EB0E1D1FC6597A7E",
			"Assets": [
				"/Engine/EditorMeshes/ColorCalibrator/M_GreyBall"
			]
		},
		{
			"ShaderMapHash": "F1649467B3C6052EEF75DDF6BBE9FFF9808BD8BB",
			"Assets": [
				"/Engine/EngineMaterials/M_InvalidLightmapSettings"
			]
		},
		{
			"ShaderMapHash": "3D345768528CF81A725E2DC6E89359A02A9F906F",
			"Assets": [
				"/Interchange/gltf/MaterialInstances/MI_SpecularGlossiness_Mask"
			]
		},
		{
			"ShaderMapHash": "CA9EAD6DC072047E3E2E0FEEB746B4BC31CE6558",
			"Assets": [
				"/Interchange/gltf/MaterialInstances/MI_Unlit_Mask_DS"
			]
		},
		{
			"ShaderMapHash": "096CAA6E8C9F0142259841E1148E5302B3F772E5",
			"Assets": [
				"/Game/StarterContent/Props/Materials/M_Lamp"
			]
		},
		{
			"ShaderMapHash": "41E6DC6E9BF3FFDBDD9879CEDB87F8763CAE54BF",
			"Assets": [
				"/Engine/EditorLandscapeResources/SplineEditorMeshMat"
			]
		},
		{
			"ShaderMapHash": "B88EDF6EFE591C9054FCD5B8D9B99E9B56197882",
			"Assets": [
				"/Game/StarterContent/Materials/M_Rock_Slate"
			]
		},
		{
			"ShaderMapHash": "1E39DC7181F3E73E9EFB456AAEC26C90ABBA09F7",
			"Assets": [
				"/Game/Cursor/M_Cursor"
			]
		},
		{
			"ShaderMapHash": "401A6D72091CD773162642BF1ABCFEF697426BEA",
			"Assets": [
				"/Game/StarterContent/Materials/M_Tech_Hex_Tile_Pulse"
			]
		},
		{
			"ShaderMapHash": "6C7359730EB9AF435E8CB5EBCC88AD8F056EEA85",
			"Assets": [
				"/Engine/VREditor/SnapGrid/SnapGridMaterial"
			]
		},
		{
			"ShaderMapHash": "A4657E759045A7781BDFD5DB5C00547BEEC7A756",
			"Assets": [
				"/Interchange/gltf/MaterialInstances/MI_SpecularGlossiness_Mask_DS"
			]
		},
		{
			"ShaderMapHash": "C925CD757EDCBD1DC25BE5BCB8E07BD56739E1F2",
			"Assets": [
				"/Engine/EditorMeshes/ColorCalibrator/M_ChromeBall"
			]
		},
		{
			"ShaderMapHash": "F2171879C7CB478DB02F0EE6AD327D029A6947F0",
			"Assets": [
				"/Engine/EngineSky/M_Sky_Panning_Clouds2"
			]
		},
		{
			"ShaderMapHash": "4FEFCA7E89313FFB568F3DAD265220DE93FF34A3",
			"Assets": [
				"/Game/Characters/Mannequin_UE4/Materials/M_MannequinUE4_Body"
			]
		},
		{
			"ShaderMapHash": "F816D58163313773C6D646547C6DAB29361E4076",
			"Assets": [
				"/Interchange/gltf/M_Unlit"
			]
		},
		{
			"ShaderMapHash": "1863DA8122FBE222BE001EEBD4A34292B6122F01",
			"Assets": [
				"/Engine/EditorMaterials/PhAT_UnselectedMaterial"
			]
		},
		{
			"ShaderMapHash": "51E84283C7D3BE9D53C3D1E6FC4D46F02726D7D2",
			"Assets": [
				"/Engine/EditorMeshes/ColorCalibrator/M_ClearCoat"
			]
		},
		{
			"ShaderMapHash": "73D047832781D0B2A300E7A04AEB765F47581D19",
			"Assets": [
				"/Game/LevelPrototyping/Materials/MI_PrototypeGrid_TopDark"
			]
		},
		{
			"ShaderMapHash": "3B4752835D57D94907883619BFBC63ADF22851EC",
			"Assets": [
				"/Engine/EngineMaterials/DefaultDeferredDecalMaterial"
			]
		},
		{
			"ShaderMapHash": "86604985991DC63839E318A6DDD2CD1134198731",
			"Assets": [
				"/Game/StarterContent/Materials/M_Concrete_Grime"
			]
		},
		{
			"ShaderMapHash": "865A5A855E2E01B28A0BB498D874ACEC398CBEA8",
			"Assets": [
				"/Engine/EngineMaterials/PPM_DefaultCalibrationColor"
			]
		},
		{
			"ShaderMapHash": "854319872FFA2B644901C802379CA7D888C4AF1A",
			"Assets": [
				"/Game/LevelPrototyping/Materials/M_Solid"
			]
		},
		{
			"ShaderMapHash": "30E738876DD8EB6705FAD3167BFAC691352C156B",
			"Assets": [
				"/Game/StarterContent/Materials/M_Water_Ocean"
			]
		},
		{
			"ShaderMapHash": "D55A75888F2CB7108BAC3520C22E9648DE8FDC21",
			"Assets": [
				"/Game/StarterContent/Materials/M_Rock_Marble_Polished"
			]
		},
		{
			"ShaderMapHash": "95150F89684A5DD613B71ABB93CAE7B652FEDC10",
			"Assets": [
				"/Game/StarterContent/Materials/M_AssetPlatform"
			]
		},
		{
			"ShaderMapHash": "51699C89BC36DCEC9ECE190738FDA3AE09DAD649",
			"Assets": [
				"/Engine/EngineMaterials/DefaultPostProcessMaterial"
			]
		},
		{
			"ShaderMapHash": "EC2C668A2049976BDAF1B8918D8C3A88A90F1114",
			"Assets": [
				"/Engine/EditorMaterials/PhAT_NoCollisionMaterial"
			]
		},
		{
			"ShaderMapHash": "D2262B8B4FCB74CDEDB375DC801151EB5ED0756B",
			"Assets": [
				"/Engine/EngineMaterials/EmissiveMeshMaterial"
			]
		},
		{
			"ShaderMapHash": "86C5798C5025669B8CD38CFD575BF74C5B2C962B",
			"Assets": [
				"/Engine/EngineSky/M_SimpleSkyDome"
			]
		},
		{
			"ShaderMapHash": "355C728DCF897410C1C1E42ACCB88D46968062EC",
			"Assets": [
				"/Engine/EngineMaterials/DefaultTextMaterialOpaque"
			]
		},
		{
			"ShaderMapHash": "4EDCB18D9CCDABC714A7751EA2A23BAC5D04B16A",
			"Assets": [
				"/Game/StarterContent/Particles/Materials/M_Spark"
			]
		},
		{
			"ShaderMapHash": "6F72AA956D048C9E851CD02D33459B4B3372F6C8",
			"Assets": [
				"/Engine/EngineDebugMaterials/M_SimpleUnlitTranslucent"
			]
		},
		{
			"ShaderMapHash": "5AE72F9641DAD163A811119F52670D2AB9698B0D",
			"Assets": [
				"/Game/StarterContent/Materials/M_Concrete_Panels"
			]
		},
		{
			"ShaderMapHash": "13519C976AAB6BFC6F3515B070190B167486DA34",
			"Assets": [
				"/Game/StarterContent/Materials/M_Concrete_Tiles"
			]
		},
		{
			"ShaderMapHash": "51E2FD970CC35122B49C5FC4D34A6BAD0FEE925A",
			"Assets": [
				"/Engine/VREditor/TransformGizmo/TranslucentTransformGizmoMaterial"
			]
		},
		{
			"ShaderMapHash": "6604DD9881A34C46211043191CEF657CDE26F9AF",
			"Assets": [
				"/Interchange/gltf/MaterialInstances/MI_Sheen_Opaque_DS"
			]
		},
		{
			"ShaderMapHash": "48EBAA99267CE84D556F9427C5552BE44EC1F9CF",
			"Assets": [
				"/Game/StarterContent/Materials/M_Tech_Checker_Dot"
			]
		},
		{
			"ShaderMapHash": "93310E9DE70C23AC1B09E4FDBFA2A37E901AF0AD",
			"Assets": [
				"/Engine/EngineMaterials/DefaultLightFunctionMaterial"
			]
		},
		{
			"ShaderMapHash": "DCD48E9E342196DA0DEC7DF6F91B46CCF2DE9BD4",
			"Assets": [
				"/Game/StarterContent/Props/Materials/M_Chair"
			]
		},
		{
			"ShaderMapHash": "4C5E399F02739FB058819A0EBA55DB224C5B07FC",
			"Assets": [
				"/Interchange/gltf/MaterialInstances/MI_Default_Opaque_DS"
			]
		},
		{
			"ShaderMapHash": "480E58A0192F338736838F1A4019B09C4B8AD3A9",
			"Assets": [
				"/Interchange/gltf/MaterialInstances/MI_Unlit_Mask"
			]
		},
		{
			"ShaderMapHash": "C3112FA22D81E2B19EFBD7C69909A870750C882C",
			"Assets": [
				"/Interchange/gltf/MaterialInstances/MI_Default_Blend_DS"
			]
		},
		{
			"ShaderMapHash": "1484D9A2514F10AA073850EFD4B4AB5B40CBFA99",
			"Assets": [
				"/Engine/EngineMaterials/NaniteHiddenSectionMaterial"
			]
		},
		{
			"ShaderMapHash": "1E9516A865328B66AC1A434CDA146CB7383A65EE",
			"Assets": [
				"/Engine/EngineDebugMaterials/M_VolumeRenderSphereTracePP"
			]
		},
		{
			"ShaderMapHash": "917DDEA92158E8F69F7B0ED774AD505B0DA3B723",
			"Assets": [
				"/Interchange/gltf/MaterialInstances/MI_Default_Mask_DS"
			]
		},
		{
			"ShaderMapHash": "6930FEAB371DABD5BA1804B647754ED603B45AE1",
			"Assets": [
				"/Game/StarterContent/Props/Materials/M_Frame"
			]
		},
		{
			"ShaderMapHash": "C73753ACFA25521625CBF3750FA1C994D33FAB2E",
			"Assets": [
				"/ControlRig/Controls/ControlRigXRayMaterial"
			]
		},
		{
			"ShaderMapHash": "F599D2AEE86E5ECDE247FBA09C12EE61C91F4EFD",
			"Assets": [
				"/Interchange/gltf/MaterialInstances/MI_SpecularGlossiness_Blend_DS"
			]
		},
		{
			"ShaderMapHash": "7596DBB5FF57EA6A8846041B7D3860CB19F43F7D",
			"Assets": [
				"/Interchange/gltf/MaterialInstances/MI_ClearCoat_Mask"
			]
		},
		{
			"ShaderMapHash": "DC857FB8F8060046EDEE6832EE8C171CD9B6AD5B",
			"Assets": [
				"/Paper2D/DefaultSpriteMaterial"
			]
		},
		{
			"ShaderMapHash": "15A4F6B84AD3C41244AEE12B0159A4AFDF9F9140",
			"Assets": [
				"/Game/StarterContent/Materials/M_Metal_Gold"
			]
		},
		{
			"ShaderMapHash": "A21DD3BB07B2D6829A4ACBAD60115EDAC4F5D6AA",
			"Assets": [
				"/Engine/EngineMaterials/PhAT_JointLimitMaterial"
			]
		},
		{
			"ShaderMapHash": "E03E24BCA93EF4DEE51917D9AB597803707D8633",
			"Assets": [
				"/Engine/EditorMeshes/ColorCalibrator/M_ClearCoatBlack"
			]
		},
		{
			"ShaderMapHash": "FCF734BC5C3A5BFDFDBF934671ACFFCB1ED83244",
			"Assets": [
				"/Game/StarterContent/Blueprints/Assets/M_LightStage_Skybox_HDRI"
			]
		},
		{
			"ShaderMapHash": "55B2E6BCB54953AEF56E025009FA6AEEE6FD2453",
			"Assets": [
				"/Game/LevelPrototyping/Materials/M_PrototypeGrid",
				"/Game/LevelPrototyping/Materials/MI_PrototypeGrid_Gray_02"
			]
		},
		{
			"ShaderMapHash": "9F5A7CC0D1A822D203A96DCB19557198505302DC",
			"Assets": [
				"/Game/StarterContent/Props/Materials/M_Door"
			]
		},
		{
			"ShaderMapHash": "870BAAC4E33E7F405B692237CBDE0F2A06781B8C",
			"Assets": [
				"/Engine/EngineMaterials/Widget3DPassThrough_Translucent"
			]
		},
		{
			"ShaderMapHash": "3C3EA1C6B93DA1B10AAB5B96CA0307521B2643CD",
			"Assets": [
				"/Game/StarterContent/Particles/Materials/M_Fire_SubUV"
			]
		},
		{
			"ShaderMapHash": "F0997AC79BBE024D55E20C764523CCFF6420B208",
			"Assets": [
				"/Game/StarterContent/Materials/M_Wood_Walnut"
			]
		},
		{
			"ShaderMapHash": "BF9911C89FABA183B5A1D3CEEEEEA8E96962E3DF",
			"Assets": [
				"/Interchange/gltf/MaterialInstances/MI_ClearCoat_Blend"
			]
		},
		{
			"ShaderMapHash": "BBFDC1C866BC172EF00CD8FB5849AFC7F69D7986",
			"Assets": [
				"/Interchange/gltf/MaterialInstances/MI_Transmission_DS"
			]
		},
		{
			"ShaderMapHash": "52FEAFC9D949A94C29846FD50C5B20495AFDDCAB",
			"Assets": [
				"/Game/LevelPrototyping/Materials/MI_PrototypeGrid_Gray"
			]
		},
		{
			"ShaderMapHash": "50C76DCBA6D7FED0DF2D3B030E81E0189C9E6243",
			"Assets": [
				"/Engine/EngineSky/VolumetricClouds/m_SimpleVolumetricCloud"
			]
		},
		{
			"ShaderMapHash": "FC05AECBB6C43F0C9D054FC16E9D7742BE56251B",
			"Assets": [
				"/ControlRig/M_Manip"
			]
		},
		{
			"ShaderMapHash": "82A008CC3635D68485AFD35AF6C78017314F8515",
			"Assets": [
				"/Game/StarterContent/Materials/M_Ground_Moss"
			]
		},
		{
			"ShaderMapHash": "1E98BFCC2CDA0E173D4BF26D9C52195B0D1B9F30",
			"Assets": [
				"/Game/StarterContent/Materials/M_Concrete_Poured"
			]
		},
		{
			"ShaderMapHash": "3F62F9CC14D8E4DE9F656E1CECDF02897A5AE329",
			"Assets": [
				"/Game/StarterContent/Materials/M_Brick_Clay_Beveled"
			]
		},
		{
			"ShaderMapHash": "2539B4D0EB37C19AFEB2B422165E15EF6D648205",
			"Assets": [
				"/Game/Characters/Mannequin_UE4/Materials/M_MannequinUE4_ChestLogo"
			]
		},
		{
			"ShaderMapHash": "8D969DD1075A72E36C19CF35FC4E48FC19CCC084",
			"Assets": [
				"/Game/StarterContent/Props/Materials/M_Rock"
			]
		},
		{
			"ShaderMapHash": "C006EFD1EE86B61D0A6E02EC4AE3B632825409DD",
			"Assets": [
				"/Game/StarterContent/Materials/M_Metal_Chrome"
			]
		},
		{
			"ShaderMapHash": "0CD499D3C37C3AB621009E75C16EABE8203E4135",
			"Assets": [
				"/Game/StarterContent/Props/Materials/M_TableRound"
			]
		},
		{
			"ShaderMapHash": "A1E88FD6ACB2938EB03C0EA99076CF404740289B",
			"Assets": [
				"/Game/StarterContent/Materials/M_Brick_Clay_Old"
			]
		},
		{
			"ShaderMapHash": "C3FD79D70C7D43180B3DA1936C81EE2AF3486C2D",
			"Assets": [
				"/Engine/EngineMaterials/GizmoMaterial"
			]
		},
		{
			"ShaderMapHash": "B53CCDD756CA21ACC255B8570D14F5B34032CBF7",
			"Assets": [
				"/Game/StarterContent/Props/Materials/M_Shelf"
			]
		},
		{
			"ShaderMapHash": "EBD1E8D98B1E408CA7B55AEE1178D1D4D89673D7",
			"Assets": [
				"/Engine/EngineMaterials/AntiAliasedTextMaterialTranslucent"
			]
		},
		{
			"ShaderMapHash": "887B30DADE25E7729A909E806EBA25F58FF2FFA6",
			"Assets": [
				"/Engine/EngineMaterials/FlattenMaterial",
				"/Engine/EngineMaterials/FlattenMaterial_VT"
			]
		},
		{
			"ShaderMapHash": "74801ADB3011D2ADD52B50FA51FC9F692AF3A7AA",
			"Assets": [
				"/Engine/EngineMaterials/Widget3DPassThrough",
				"/Engine/EngineMaterials/Widget3DPassThrough_Translucent_OneSided"
			]
		},
		{
			"ShaderMapHash": "EAE573DE2F14FE4B6DED78A5A4B870E86DB9B180",
			"Assets": [
				"/Game/StarterContent/Materials/M_Wood_Floor_Walnut_Polished"
			]
		},
		{
			"ShaderMapHash": "5424A7E0A8EB60FCA2F17EF8B328D2BAF15BABC6",
			"Assets": [
				"/MeshModelingToolset/Materials/M_DynamicMeshComponentVtxColor"
			]
		},
		{
			"ShaderMapHash": "410D31E19E8C379CB0C698DFFF8BF2B94039AE64",
			"Assets": [
				"/Game/StarterContent/Materials/M_Brick_Hewn_Stone"
			]
		},
		{
			"ShaderMapHash": "910EE2E26A8AF314BE3481D9574F5A433A8AC515",
			"Assets": [
				"/Game/StarterContent/Materials/M_Metal_Rust"
			]
		},
		{
			"ShaderMapHash": "6774EBE2C930726FABD59A828379C88D1292AC30",
			"Assets": [
				"/Interchange/gltf/M_Transmission"
			]
		},
		{
			"ShaderMapHash": "A7861BE5ED31D67ECB7B05D88E9AEE6B33052CA3",
			"Assets": [
				"/Game/StarterContent/Materials/M_Basic_Floor"
			]
		},
		{
			"ShaderMapHash": "A0E28EE59861BF7F5BA23B4A610C34F652FE9F81",
			"Assets": [
				"/Interchange/gltf/MaterialInstances/MI_Default_Blend"
			]
		},
		{
			"ShaderMapHash": "86C344E7A8C8E5AC32250965576F749DD29FBF8B",
			"Assets": [
				"/Engine/EngineMaterials/FlattenMaterial_WS_Normal_VT"
			]
		},
		{
			"ShaderMapHash": "DFB1C1E739503E2C415844100AFE57E69BCE0E69",
			"Assets": [
				"/Game/StarterContent/Materials/M_Wood_Floor_Walnut_Worn"
			]
		},
		{
			"ShaderMapHash": "122F0CE8B33F28CEE3FACDDA5E57E4F3E1A5CFF8",
			"Assets": [
				"/Engine/EngineDebugMaterials/DebugEditorMaterial"
			]
		},
		{
			"ShaderMapHash": "5CC663EA6CB06C07C0A58626E2C98C39706F7419",
			"Assets": [
				"/ControlRig/Controls/ControlRigGizmoMaterial"
			]
		},
		{
			"ShaderMapHash": "454D50EC0B07024F1C1BE2A62C61E14ABB17B554",
			"Assets": [
				"/Interchange/gltf/MaterialInstances/MI_SpecularGlossiness_Blend"
			]
		},
		{
			"ShaderMapHash": "DAD223F1CE9F266B4B148D1BBDFB081EEB7D88A2",
			"Assets": [
				"/Game/StarterContent/Materials/M_ColorGrid_LowSpec"
			]
		},
		{
			"ShaderMapHash": "FF6A5EF2A3C767990A27ED872CC3F4B45A34618C",
			"Assets": [
				"/Engine/EngineMaterials/DefaultMaterial"
			]
		},
		{
			"ShaderMapHash": "A52275F3BA41AD3188E60348D08D60167D74DE98",
			"Assets": [
				"/Engine/EditorMaterials/PreviewShadowIndicatorMaterial"
			]
		},
		{
			"ShaderMapHash": "87AB3FF66A29CE03E4054C675A0FFEF53374E0FC",
			"Assets": [
				"/Game/StarterContent/Materials/M_Rock_Sandstone"
			]
		},
		{
			"ShaderMapHash": "A6BA7EF6D12F8DFF9D3A3F50C32AFD6E9E29989A",
			"Assets": [
				"/Game/StarterContent/Materials/M_Ceramic_Tile_Checker"
			]
		},
		{
			"ShaderMapHash": "299350F7491D8E4AD194E7E1EED2F9008AB8F897",
			"Assets": [
				"/Game/StarterContent/Particles/Materials/M_Burst"
			]
		},
		{
			"ShaderMapHash": "079217FB82A46692AE3A18833BA01C09BE207528",
			"Assets": [
				"/Interchange/gltf/M_ClearCoat"
			]
		},
		{
			"ShaderMapHash": "4B648BFC853119FA5D90F64245E5788DCC122DE5",
			"Assets": [
				"/Engine/EngineDebugMaterials/DebugMeshMaterial"
			]
		},
		{
			"ShaderMapHash": "6EFBE7FC5DB0A389B628028286CC1EBC4AFA7082",
			"Assets": [
				"/Interchange/gltf/MaterialInstances/MI_Sheen_Blend"
			]
		},
		{
			"ShaderMapHash": "9FFB5BFDC45E8D9C44AF60B076220966D7A2A5C8",
			"Assets": [
				"/Game/StarterContent/Materials/M_Metal_Steel"
			]
		},
		{
			"ShaderMapHash": "81E540FEA495292C486C4597AC8AE89A784B91BC",
			"Assets": [
				"/Game/StarterContent/Particles/Materials/M_Dust_Particle"
			]
		},
		{
			"ShaderMapHash": "23C99FFE96509994DE6436D1B4850C28277D353A",
			"Assets": [
				"/Game/StarterContent/Materials/M_Ground_Gravel"
			]
		},
		{
			"ShaderMapHash": "667725FF54553BCC5F2C1A9569D0BA098956FCA2",
			"Assets": [
				"/Game/StarterContent/Materials/M_Metal_Copper"
			]
		}
	]
}